<svg width="153" height="14" viewBox="0 0 153 14" fill="none" xmlns="http://www.w3.org/2000/svg">
<path d="M0.142578 13V0.203125H4.625C6.17773 0.203125 7.35547 0.501953 8.1582 1.09961C8.96094 1.69141 9.3623 2.56152 9.3623 3.70996C9.3623 4.33691 9.20117 4.89062 8.87891 5.37109C8.55664 5.8457 8.1084 6.19434 7.53418 6.41699C8.19043 6.58105 8.70605 6.91211 9.08105 7.41016C9.46191 7.9082 9.65234 8.51758 9.65234 9.23828C9.65234 10.4688 9.25977 11.4004 8.47461 12.0332C7.68945 12.666 6.57031 12.9883 5.11719 13H0.142578ZM2.7793 7.42773V10.8818H5.03809C5.65918 10.8818 6.14258 10.7354 6.48828 10.4424C6.83984 10.1436 7.01562 9.7334 7.01562 9.21191C7.01562 8.04004 6.40918 7.44531 5.19629 7.42773H2.7793ZM2.7793 5.56445H4.73047C6.06055 5.54102 6.72559 5.01074 6.72559 3.97363C6.72559 3.39355 6.55566 2.97754 6.21582 2.72559C5.88184 2.46777 5.35156 2.33887 4.625 2.33887H2.7793V5.56445ZM21.3242 0.203125V8.63184C21.3242 10.0322 20.8848 11.1396 20.0059 11.9541C19.1328 12.7686 17.9375 13.1758 16.4199 13.1758C14.9258 13.1758 13.7393 12.7803 12.8604 11.9893C11.9814 11.1982 11.5332 10.1113 11.5156 8.72852V0.203125H14.1523V8.64941C14.1523 9.4873 14.3516 10.0996 14.75 10.4863C15.1543 10.8672 15.7109 11.0576 16.4199 11.0576C17.9023 11.0576 18.6553 10.2783 18.6787 8.71973V0.203125H21.3242ZM30.1221 9.64258C30.1221 9.14453 29.9463 8.76367 29.5947 8.5C29.2432 8.23047 28.6104 7.94922 27.6963 7.65625C26.7822 7.35742 26.0586 7.06445 25.5254 6.77734C24.0723 5.99219 23.3457 4.93457 23.3457 3.60449C23.3457 2.91309 23.5391 2.29785 23.9258 1.75879C24.3184 1.21387 24.8779 0.789063 25.6045 0.484375C26.3369 0.179687 27.1572 0.0273438 28.0654 0.0273438C28.9795 0.0273438 29.7939 0.194336 30.5088 0.52832C31.2236 0.856445 31.7773 1.32227 32.1699 1.92578C32.5684 2.5293 32.7676 3.21484 32.7676 3.98242H30.1309C30.1309 3.39648 29.9463 2.94238 29.5771 2.62012C29.208 2.29199 28.6895 2.12793 28.0215 2.12793C27.377 2.12793 26.876 2.26563 26.5186 2.54102C26.1611 2.81055 25.9824 3.16797 25.9824 3.61328C25.9824 4.0293 26.1904 4.37793 26.6064 4.65918C27.0283 4.94043 27.6465 5.2041 28.4609 5.4502C29.9609 5.90137 31.0537 6.46094 31.7393 7.12891C32.4248 7.79688 32.7676 8.62891 32.7676 9.625C32.7676 10.7324 32.3486 11.6025 31.5107 12.2354C30.6729 12.8623 29.5449 13.1758 28.127 13.1758C27.1426 13.1758 26.2461 12.9971 25.4375 12.6396C24.6289 12.2764 24.0107 11.7812 23.583 11.1543C23.1611 10.5273 22.9502 9.80078 22.9502 8.97461H25.5957C25.5957 10.3867 26.4395 11.0928 28.127 11.0928C28.7539 11.0928 29.2432 10.9668 29.5947 10.7148C29.9463 10.457 30.1221 10.0996 30.1221 9.64258ZM37.3643 13H34.7275V0.203125H37.3643V13ZM50.2227 13H47.5859L42.4531 4.58008V13H39.8164V0.203125H42.4531L47.5947 8.64062V0.203125H50.2227V13ZM60.2246 7.4541H55.1621V10.8818H61.1035V13H52.5254V0.203125H61.0859V2.33887H55.1621V5.38867H60.2246V7.4541ZM69.2861 9.64258C69.2861 9.14453 69.1104 8.76367 68.7588 8.5C68.4072 8.23047 67.7744 7.94922 66.8604 7.65625C65.9463 7.35742 65.2227 7.06445 64.6895 6.77734C63.2363 5.99219 62.5098 4.93457 62.5098 3.60449C62.5098 2.91309 62.7031 2.29785 63.0898 1.75879C63.4824 1.21387 64.042 0.789063 64.7686 0.484375C65.501 0.179687 66.3213 0.0273438 67.2295 0.0273438C68.1436 0.0273438 68.958 0.194336 69.6729 0.52832C70.3877 0.856445 70.9414 1.32227 71.334 1.92578C71.7324 2.5293 71.9316 3.21484 71.9316 3.98242H69.2949C69.2949 3.39648 69.1104 2.94238 68.7412 2.62012C68.3721 2.29199 67.8535 2.12793 67.1855 2.12793C66.541 2.12793 66.04 2.26563 65.6826 2.54102C65.3252 2.81055 65.1465 3.16797 65.1465 3.61328C65.1465 4.0293 65.3545 4.37793 65.7705 4.65918C66.1924 4.94043 66.8105 5.2041 67.625 5.4502C69.125 5.90137 70.2178 6.46094 70.9033 7.12891C71.5889 7.79688 71.9316 8.62891 71.9316 9.625C71.9316 10.7324 71.5127 11.6025 70.6748 12.2354C69.8369 12.8623 68.709 13.1758 67.291 13.1758C66.3066 13.1758 65.4102 12.9971 64.6016 12.6396C63.793 12.2764 63.1748 11.7812 62.7471 11.1543C62.3252 10.5273 62.1143 9.80078 62.1143 8.97461H64.7598C64.7598 10.3867 65.6035 11.0928 67.291 11.0928C67.918 11.0928 68.4072 10.9668 68.7588 10.7148C69.1104 10.457 69.2861 10.0996 69.2861 9.64258ZM80.3604 9.64258C80.3604 9.14453 80.1846 8.76367 79.833 8.5C79.4814 8.23047 78.8486 7.94922 77.9346 7.65625C77.0205 7.35742 76.2969 7.06445 75.7637 6.77734C74.3105 5.99219 73.584 4.93457 73.584 3.60449C73.584 2.91309 73.7773 2.29785 74.1641 1.75879C74.5566 1.21387 75.1162 0.789063 75.8428 0.484375C76.5752 0.179687 77.3955 0.0273438 78.3037 0.0273438C79.2178 0.0273438 80.0322 0.194336 80.7471 0.52832C81.4619 0.856445 82.0156 1.32227 82.4082 1.92578C82.8066 2.5293 83.0059 3.21484 83.0059 3.98242H80.3691C80.3691 3.39648 80.1846 2.94238 79.8154 2.62012C79.4463 2.29199 78.9277 2.12793 78.2598 2.12793C77.6152 2.12793 77.1143 2.26563 76.7568 2.54102C76.3994 2.81055 76.2207 3.16797 76.2207 3.61328C76.2207 4.0293 76.4287 4.37793 76.8447 4.65918C77.2666 4.94043 77.8848 5.2041 78.6992 5.4502C80.1992 5.90137 81.292 6.46094 81.9775 7.12891C82.6631 7.79688 83.0059 8.62891 83.0059 9.625C83.0059 10.7324 82.5869 11.6025 81.749 12.2354C80.9111 12.8623 79.7832 13.1758 78.3652 13.1758C77.3809 13.1758 76.4844 12.9971 75.6758 12.6396C74.8672 12.2764 74.249 11.7812 73.8213 11.1543C73.3994 10.5273 73.1885 9.80078 73.1885 8.97461H75.834C75.834 10.3867 76.6777 11.0928 78.3652 11.0928C78.9922 11.0928 79.4814 10.9668 79.833 10.7148C80.1846 10.457 80.3604 10.0996 80.3604 9.64258ZM98.3867 2.33887H94.4668V13H91.8301V2.33887H87.9629V0.203125H98.3867V2.33887ZM104.636 8.31543H102.535V13H99.8984V0.203125H104.653C106.165 0.203125 107.331 0.540039 108.151 1.21387C108.972 1.8877 109.382 2.83984 109.382 4.07031C109.382 4.94336 109.191 5.67285 108.811 6.25879C108.436 6.83887 107.864 7.30176 107.097 7.64746L109.865 12.877V13H107.035L104.636 8.31543ZM102.535 6.17969H104.662C105.324 6.17969 105.837 6.0127 106.2 5.67871C106.563 5.33887 106.745 4.87305 106.745 4.28125C106.745 3.67773 106.572 3.20312 106.227 2.85742C105.887 2.51172 105.362 2.33887 104.653 2.33887H102.535V6.17969ZM118.619 10.3633H113.996L113.117 13H110.313L115.077 0.203125H117.521L122.311 13H119.507L118.619 10.3633ZM114.708 8.22754H117.907L116.299 3.4375L114.708 8.22754ZM127.549 9.82715L130.449 0.203125H133.385L128.929 13H126.178L121.739 0.203125H124.666L127.549 9.82715ZM142.297 7.4541H137.234V10.8818H143.176V13H134.598V0.203125H143.158V2.33887H137.234V5.38867H142.297V7.4541ZM147.359 10.8818H152.958V13H144.723V0.203125H147.359V10.8818Z" fill="url(#paint0_linear)"/>
<defs>
<linearGradient id="paint0_linear" x1="-1" y1="-16.9706" x2="154" y2="-16.9706" gradientUnits="userSpaceOnUse">
<stop stop-color="#F37021"/>
<stop offset="1" stop-color="#EE1E24"/>
</linearGradient>
</defs>
</svg>
