<svg width="600" height="341" viewBox="0 0 600 341" fill="none" xmlns="http://www.w3.org/2000/svg">
<g clip-path="url(#clip0)">
<path opacity="0.5" d="M489.201 93.0878C533.153 148.761 552.103 234.01 498.836 299.205C445.57 364.399 387.666 284.809 335.308 297.387C282.95 309.955 193.053 339.429 135.749 274.606C78.4337 209.783 86.9225 87.2737 163.291 32.5302C239.659 -22.2237 406.554 -11.5972 489.201 93.0878Z" fill="#FFF5E8"/>
<path d="M131.804 61.3425C148.079 73.2702 133.033 97.7762 127.704 121.136C121.322 149.164 93.3563 158.169 70.6472 150.227C57.4492 145.611 44.7883 136.09 35.0499 128.871C14.7057 113.814 29.1635 79.1979 68.8916 62.3442C99.3769 49.4148 121.838 54.0413 131.804 61.3425Z" fill="#F4F4E2"/>
<path d="M127.704 121.136C132.919 98.3029 147.387 74.3855 132.847 62.179C113.318 87.728 102.155 119.267 99.253 151.342C112.585 147.645 123.924 137.721 127.704 121.136Z" fill="#EFEFD4"/>
<path d="M559.404 192.651C563.195 215.99 541.621 226.606 528.547 222.248C515.463 217.9 486.775 193.446 497.236 173.04C507.676 152.633 550.627 138.651 559.404 192.651Z" fill="#FEE7E7"/>
<path d="M497.225 173.04C486.775 193.446 515.453 217.9 528.537 222.248C529.177 222.465 529.849 222.63 530.53 222.774C532.75 199.983 529.632 176.995 522.589 155.298C511.704 157.064 501.604 164.489 497.225 173.04Z" fill="#FFE1D9"/>
<path d="M586.885 316.007H12.7022L38.8606 298.451H560.726L586.885 316.007Z" fill="#F2E5D6"/>
<path d="M586.885 316.007H12.7022V339.759H586.885V316.007Z" fill="url(#paint0_linear)"/>
<g filter="url(#filter0_dd)">
<path d="M463.993 56.3855H149.814V249.831H463.993V56.3855Z" fill="white"/>
</g>
<path d="M438.878 111.831H293.339V115.312H438.878V111.831Z" fill="#E0DCD7"/>
<path d="M440.52 119.886H293.153V123.088H440.52V119.886Z" fill="#E0DCD7"/>
<path d="M443.318 104.055H293.339V107.535H443.318V104.055Z" fill="#E0DCD7"/>
<path d="M440.52 127.363H293.153V130.565H440.52V127.363Z" fill="#E0DCD7"/>
<path d="M440.251 135.16H293.339V138.651H440.251V135.16Z" fill="#E0DCD7"/>
<path d="M313.725 142.936H293.339V146.427H313.725V142.936Z" fill="#E0DCD7"/>
<path d="M439.766 189.356H398.799V192.836H439.766V189.356Z" fill="#E0DCD7"/>
<path d="M439.456 175.343H398.881V182.819H439.456V175.343Z" fill="#E0DCD7"/>
<path d="M439.456 196.699H398.881V199.9H439.456V196.699Z" fill="#E0DCD7"/>
<path d="M345.48 71.7625H258.981V84.5783H345.48V71.7625Z" fill="#E0DCD7"/>
<path d="M213.935 123.067C214.09 123.914 214.182 124.781 214.182 125.659C214.182 133.921 207.47 140.623 199.219 140.623C197.422 140.623 195.707 140.293 194.107 139.704L189.821 151.446C192.744 152.52 195.914 153.088 199.208 153.088C214.368 153.088 226.647 140.809 226.647 125.649C226.647 124.017 226.492 122.437 226.224 120.888L213.935 123.067Z" fill="#C3E09D"/>
<path d="M184.244 125.659C184.244 117.398 190.957 110.695 199.208 110.695V98.2203C184.048 98.2203 171.769 110.499 171.769 125.659C171.769 137.515 179.287 147.614 189.821 151.456L194.107 139.714C188.355 137.608 184.244 132.114 184.244 125.659Z" fill="#FF8D8D"/>
<path d="M213.935 123.067L226.224 120.898C223.972 108.021 212.737 98.2203 199.208 98.2203V110.695C206.561 110.695 212.695 116.045 213.935 123.067Z" fill="#FFD066"/>
<path d="M276.547 148.626H243.614C241.332 148.626 239.494 146.788 239.494 144.506V106.089C239.494 103.807 241.332 101.969 243.614 101.969H276.537C278.819 101.969 280.657 103.807 280.657 106.089V144.506C280.657 146.788 278.819 148.626 276.547 148.626Z" fill="#F5F4F2"/>
<path d="M248.437 114.589C249.955 114.589 251.184 113.36 251.184 111.842C251.184 110.324 249.955 109.095 248.437 109.095C246.919 109.095 245.69 110.324 245.69 111.842C245.69 113.36 246.919 114.589 248.437 114.589Z" fill="#FF8D8D"/>
<path d="M248.437 127.497C249.955 127.497 251.184 126.268 251.184 124.75C251.184 123.232 249.955 122.003 248.437 122.003C246.919 122.003 245.69 123.232 245.69 124.75C245.69 126.268 246.919 127.497 248.437 127.497Z" fill="#C3E09D"/>
<path d="M248.437 140.417C249.955 140.417 251.184 139.188 251.184 137.67C251.184 136.152 249.955 134.923 248.437 134.923C246.919 134.923 245.69 136.152 245.69 137.67C245.69 139.188 246.919 140.417 248.437 140.417Z" fill="#FFD066"/>
<path d="M257.256 111.852H270.95" stroke="#DEDDDE" stroke-width="3.1021" stroke-miterlimit="10" stroke-linecap="round"/>
<path d="M257.256 124.761H270.95" stroke="#DEDDDE" stroke-width="3.1021" stroke-miterlimit="10" stroke-linecap="round"/>
<path d="M257.256 138.134H270.95" stroke="#DEDDDE" stroke-width="3.1021" stroke-miterlimit="10" stroke-linecap="round"/>
<path d="M300.733 168.774H171.769V233.256H300.733V168.774Z" fill="#F5F4F2"/>
<g opacity="0.8">
<path opacity="0.8" d="M293.876 182.499H288.392V233.256H293.876V182.499Z" fill="url(#paint1_linear)"/>
<path opacity="0.8" d="M282.898 189.356H277.415V233.256H282.898V189.356Z" fill="url(#paint2_linear)"/>
<path opacity="0.8" d="M271.921 203.081H266.437V233.267H271.921V203.081Z" fill="url(#paint3_linear)"/>
<path opacity="0.8" d="M260.943 200.334H255.449V233.256H260.943V200.334Z" fill="url(#paint4_linear)"/>
<path opacity="0.8" d="M249.976 196.213H244.492V233.256H249.976V196.213Z" fill="url(#paint5_linear)"/>
<path opacity="0.8" d="M238.998 189.356H233.515V233.256H238.998V189.356Z" fill="url(#paint6_linear)"/>
<path opacity="0.8" d="M228.021 192.103H222.537V233.267H228.021V192.103Z" fill="url(#paint7_linear)"/>
<path opacity="0.8" d="M217.043 194.84H211.559V233.256H217.043V194.84Z" fill="url(#paint8_linear)"/>
<path opacity="0.8" d="M206.065 198.96H200.582V233.256H206.065V198.96Z" fill="url(#paint9_linear)"/>
<path opacity="0.8" d="M195.098 203.081H189.614V233.267H195.098V203.081Z" fill="url(#paint10_linear)"/>
<path opacity="0.8" d="M184.12 207.191H178.626V233.256H184.12V207.191Z" fill="url(#paint11_linear)"/>
</g>
<path opacity="0.8" d="M324.021 200.334L310.668 233.257H337.353L324.021 200.334Z" fill="#FF8D8D"/>
<path opacity="0.9" d="M348.754 169.632L325.157 233.267H372.351L348.754 169.632Z" fill="#FFD066"/>
<path opacity="0.9" d="M330.981 217.539L325.157 233.257H337.353L330.981 217.539Z" fill="#FFBF98"/>
<path opacity="0.8" d="M376.709 201.708L362.561 233.267H390.867L376.709 201.708Z" fill="#C3E09D"/>
<path d="M372.351 233.256L367.921 221.318L362.571 233.256H372.351Z" fill="#CAD891"/>
<path d="M112.719 129.243C112.719 129.243 116.024 129.573 117.005 132.217L127.394 168.33L117.005 168.991L112.389 154.812L112.719 129.243Z" fill="url(#paint12_linear)"/>
<path d="M72.2375 132.134L56.6437 165.263L66.537 168.238L74.9535 150.682L72.2375 132.134Z" fill="url(#paint13_linear)"/>
<path d="M99.6145 117.398V127.797H88.5129V114.186L99.6145 117.398Z" fill="#FFD6D2"/>
<path opacity="0.25" d="M99.6145 119.256L88.5232 118.843C90.0723 123.707 99.6145 123.666 99.6145 123.666V119.256Z" fill="url(#paint14_linear)"/>
<path d="M75.5628 128.313C77.8038 127.518 86.241 124.534 86.241 124.534L94.5852 162.382L101.721 125.102L113.793 129.656C116.138 130.275 115.652 133.487 115.652 133.487L112.678 172.1H76.4509L72.2478 132.124C72.6506 129.522 73.3115 129.108 75.5628 128.313Z" fill="#454B81"/>
<path d="M86.241 124.534L88.5129 122.964L93.883 127.673L99.6145 122.964L101.721 125.102L94.5852 162.382L86.241 124.534Z" fill="white"/>
<path d="M93.883 127.673L95.6076 129.284L95.2461 132.31L97.4664 147.594L94.5852 162.382L91.043 146.344L92.5921 132.31L92.1377 129.16L93.883 127.673Z" fill="#F26868"/>
<path d="M120.475 158.592C120.94 155.37 122.943 141.449 122.943 141.449L133.332 142.275L130.534 166.843C130.534 166.843 130.565 173.608 122.478 172.451C122.478 172.451 118.482 171.46 117.015 168.991C117.005 168.981 120.01 161.814 120.475 158.592Z" fill="#454B81"/>
<path d="M123.935 138.083L124.42 134.778C124.42 134.778 124.75 130.647 128.881 129.831C128.881 129.831 134.158 128.675 135.811 127.188C135.811 127.188 137.122 126.361 137.298 127.188C137.298 127.188 138.785 126.196 139.115 127.343C139.115 127.343 139.611 128.654 137.628 129.811C137.628 129.811 137.298 130.967 135.811 131.959C135.811 131.959 131.194 134.757 130.193 135.418L128.881 135.914L128.726 138.382L123.935 138.083Z" fill="#FFD6D2"/>
<path d="M124.42 134.788C124.42 134.788 124.42 130.988 127.725 129.016C127.725 129.016 129.036 126.547 131.184 126.372C131.184 126.372 131.515 127.033 129.873 128.685C129.873 128.685 129.377 129.676 128.231 130.998L124.42 134.788Z" fill="#FFD6D2"/>
<path d="M126.227 135.439C126.052 135.429 125.907 135.284 125.917 135.098C125.959 134.355 126.258 133.735 126.816 133.239C128.272 131.979 131.029 132.103 131.608 132.134C133.064 131.329 134.819 130.368 134.819 130.368C137.05 129.098 137.701 129.356 137.886 129.635C137.979 129.78 137.938 129.976 137.793 130.089C137.67 130.172 137.504 130.151 137.391 130.058C137.308 130.048 136.792 129.966 135.119 130.916C135.119 130.916 133.301 131.897 131.824 132.733C131.773 132.764 131.711 132.775 131.639 132.775C131.618 132.775 128.613 132.506 127.239 133.704C126.816 134.076 126.589 134.53 126.568 135.108C126.558 135.284 126.423 135.408 126.248 135.408C126.227 135.439 126.227 135.439 126.227 135.439ZM137.349 130.028C137.349 130.017 137.349 130.017 137.349 130.028C137.349 130.017 137.349 130.017 137.349 130.028Z" fill="#DDA4A4"/>
<path d="M132.95 131.019C133.002 131.019 133.043 131.009 133.095 130.978C134.076 130.492 139.043 127.756 139.25 127.632C139.404 127.549 139.466 127.353 139.384 127.198C139.301 127.043 139.105 126.981 138.95 127.064C138.898 127.095 133.787 129.914 132.816 130.389C132.661 130.472 132.589 130.668 132.671 130.823C132.733 130.967 132.837 131.019 132.95 131.019Z" fill="#DDA4A4"/>
<path d="M132.341 130.162C132.382 130.162 132.434 130.152 132.475 130.131C133.59 129.645 137.287 127.57 137.453 127.477C137.608 127.384 137.67 127.198 137.566 127.043C137.473 126.888 137.287 126.826 137.133 126.919C137.091 126.95 133.301 129.057 132.207 129.542C132.052 129.604 131.969 129.811 132.052 129.966C132.103 130.09 132.217 130.162 132.341 130.162Z" fill="#DDA4A4"/>
<path d="M122.933 141.449L123.439 137.814L130.854 138.145L130.678 142.058L122.933 141.449Z" fill="#F0F0F1"/>
<path d="M101.907 113.411C102.929 113.411 103.756 112.585 103.756 111.563C103.756 110.54 102.929 109.714 101.907 109.714C100.885 109.714 100.059 110.54 100.059 111.563C100.069 112.585 100.885 113.411 101.907 113.411Z" fill="#EAB3AC"/>
<path d="M86.6747 113.411C87.6971 113.411 88.5232 112.585 88.5232 111.563C88.5232 110.54 87.6971 109.714 86.6747 109.714C85.6523 109.714 84.8262 110.54 84.8262 111.563C84.8365 112.585 85.6626 113.411 86.6747 113.411Z" fill="#FFD6D2"/>
<path d="M92.8606 121.229H95.8038C98.9122 121.229 101.029 118.905 101.287 115.621C101.556 112.234 101.886 104.675 101.886 104.675C101.917 101.308 99.4079 99.16 96.3614 99.16H92.2203C89.1842 99.16 86.7057 101.639 86.7057 104.675C86.7057 104.675 87.0361 112.482 87.3873 115.611C87.7384 118.678 89.7522 121.229 92.8606 121.229Z" fill="url(#paint15_linear)"/>
<path d="M95.3701 95.3288C97.6627 95.6179 99.8726 96.4544 101.67 98.0138C103.797 99.8314 104.933 101.566 104.468 103.374C103.941 105.429 102.599 105.738 102.599 105.738C101.907 107.659 101.587 110.923 101.587 110.923C101.587 110.923 101.876 105.749 100.73 104.757C100.09 104.2 99.1291 104.355 98.3029 104.189C96.2065 103.766 94.3787 101.473 92.2616 101.143C85.9725 100.162 86.7676 108.227 87.0878 111.997C87.0878 111.997 86.6127 109.9 85.7349 107.349C84.8468 104.778 83.8348 101.391 86.9432 99.284C87.0878 96.031 90.4854 94.7092 95.3701 95.3288Z" fill="#5B575B"/>
<path d="M95.3701 95.3288C97.6627 95.6179 99.8726 96.4544 101.67 98.0138C103.797 99.8314 104.933 101.566 104.468 103.374C103.941 105.429 102.599 105.738 102.599 105.738C101.463 105.635 100.73 104.757 100.73 104.757C100.09 104.2 99.1291 104.355 98.3029 104.189C96.2065 103.766 94.3787 101.473 92.2616 101.143L86.9432 99.284C87.0878 96.031 90.4854 94.7092 95.3701 95.3288Z" fill="url(#paint16_linear)"/>
<path d="M98.0034 110.809C98.3236 110.809 98.5921 110.489 98.5921 110.107C98.5921 109.725 98.3339 109.405 98.0034 109.405C97.6833 109.405 97.4148 109.725 97.4148 110.107C97.4148 110.489 97.6833 110.809 98.0034 110.809Z" fill="#5B575B"/>
<path d="M91.4045 110.809C91.7246 110.809 91.9931 110.489 91.9931 110.107C91.9931 109.725 91.7349 109.405 91.4045 109.405C91.074 109.405 90.8158 109.725 90.8158 110.107C90.8158 110.489 91.074 110.809 91.4045 110.809Z" fill="#5B575B"/>
<path d="M97.136 107.112C97.136 107.112 97.7762 106.73 98.8503 107.029" stroke="#5B575B" stroke-width="0.75" stroke-miterlimit="10" stroke-linecap="round"/>
<path d="M92.3442 107.112C92.3442 107.112 91.704 106.73 90.63 107.029" stroke="#5B575B" stroke-width="0.75" stroke-miterlimit="10" stroke-linecap="round"/>
<path d="M96.6403 117.129C96.6403 117.129 94.8227 117.831 92.778 117.139" stroke="#DDA4A4" stroke-width="0.75" stroke-miterlimit="10" stroke-linecap="round"/>
<path opacity="0.7" d="M94.9053 108.547L95.9174 114.775C95.9174 114.775 95.4423 115.332 94.2547 115.053" stroke="#DDA4A4" stroke-width="0.75" stroke-miterlimit="10" stroke-linecap="round"/>
<path d="M93.883 127.673L97.9931 131.019L101.484 126.372L101.38 126.878L98.0138 131.897L93.883 127.673Z" fill="#D1D3D4"/>
<path d="M93.883 127.673L89.5972 130.988L86.7986 127.022L86.9019 127.508L89.494 131.886L93.883 127.673Z" fill="#D1D3D4"/>
<path d="M101.721 125.102L103.807 125.886L104.964 139.27L100.812 144.547L102.475 149.318L94.7298 166.151L94.5955 162.372L101.721 125.102Z" fill="#444F8E"/>
<path d="M86.241 124.534L84.1343 125.277L83.1222 139.27L87.284 144.547L85.6213 149.318L94.7091 166.151L94.5749 162.372L86.241 124.534Z" fill="#444F8E"/>
<path d="M93.9759 164.53C93.9759 164.53 94.8744 163.043 96.9707 161.318C96.9707 161.318 99.2633 160.327 99.6867 159.346C99.6867 159.346 101.122 159.594 99.6454 161.814L97.9621 163.539L100.699 162.795L104.065 163.043C104.065 163.043 105.325 164.53 103.849 165.026H100.905L99.0052 165.769L104.262 166.265C104.262 166.265 105.305 167.256 103.838 167.99L98.9948 167.742L104.251 168.971C104.251 168.971 105.088 169.714 104.034 170.2H98.5714L103.198 171.191C103.198 171.191 104.034 171.935 102.558 172.42L98.3546 172.172C98.3546 172.172 94.7711 173.659 93.7281 171.181L93.9759 164.53Z" fill="#FFD6D2"/>
<path opacity="0.75" d="M84.1343 125.277L83.1222 139.27L87.284 144.547L85.6214 149.318L93.821 164.52L85.105 149.391L86.8916 144.599L82.5129 139.291L84.1343 125.277Z" fill="#2F3868"/>
<path opacity="0.75" d="M103.807 125.886L104.964 139.27L100.812 144.547L102.475 149.318L97.0327 161.143L102.981 149.401L101.205 144.609L105.583 139.301L103.807 125.886Z" fill="#2F3868"/>
<path d="M90.568 163.807L94.0275 163.848L93.759 171.212H90.6713L90.568 163.807Z" fill="white"/>
<path d="M66.2995 160.637L90.537 162.31L90.6713 171.48C90.6713 171.48 63.1188 172.523 61.2806 172.523C58.389 172.523 55.4148 170.024 56.654 165.263C57.0361 163.807 58.8434 160.637 66.2995 160.637Z" fill="#454B81"/>
<path opacity="0.75" d="M75.284 161.029L75.315 161.256L90.5473 162.3L90.5783 163.797H90.9088L90.9707 161.855L75.284 161.029Z" fill="#2F3868"/>
<path d="M55.7762 183.459H132.423L135.738 176.902H52.0379L55.7762 183.459Z" fill="#D3C2B6"/>
<path d="M132.423 178.926H55.7762V307.466H132.423V178.926Z" fill="url(#paint17_linear)"/>
<path d="M135.728 170.417H52.0379V176.892H135.728V170.417Z" fill="#F2E5D6"/>
<path d="M537.129 224.53L531.924 224.055C528.568 223.745 525.305 225.305 523.435 228.113L514.172 241.993C513.16 243.501 512.623 245.287 512.623 247.105V255.253C512.623 261.49 516.403 266.375 516.403 266.375L518.757 283.57L531.759 287.804L540.785 283.652L541.435 264.95L544.761 258.134C545.226 257.009 545.463 255.811 545.463 254.592V233.7C545.463 228.919 541.828 224.953 537.129 224.53Z" fill="#FFD8D7"/>
<path d="M512.592 248.055C514.792 248.055 516.589 245.38 516.589 242.076C516.589 238.771 514.802 236.096 512.592 236.096C510.382 236.096 508.595 238.771 508.595 242.076C508.606 245.38 510.392 248.055 512.592 248.055Z" fill="#FFB3B1"/>
<path d="M546.981 279.728L543.253 274.43C543.253 274.43 525.552 272.52 516.558 275.938L513.852 281.525L546.981 279.728Z" fill="#CCE0A4"/>
<path d="M513.852 281.029C522.248 278.613 534.114 279.129 547.074 279.738C547.074 279.738 575.773 285.553 578.024 308.437H508.224V340.131H484.234C484.172 339.232 484.1 338.272 484.038 337.301C483.47 329.246 483.108 322.585 482.902 317.69C482.375 305.732 487.828 294.207 497.608 287.318C501.831 284.344 507.181 281.969 513.852 281.029Z" fill="#C0D6A1"/>
<path d="M524.096 290.344H547.611C565.301 290.344 579.635 304.688 579.635 322.368V340.131H492.072V322.368C492.072 304.678 506.417 290.344 524.096 290.344Z" fill="#F2DDDD"/>
<path d="M533.721 290.344H557.236C574.926 290.344 589.27 304.688 589.27 322.368V340.131H501.687V322.368C501.687 304.678 516.031 290.344 533.721 290.344Z" fill="#FEF6F7"/>
<path d="M579.873 299.721C585.666 305.515 589.25 313.518 589.25 322.368V340.131H543.594L579.873 299.721Z" fill="#FEEDEF"/>
<path d="M398.324 239.277C400.389 259.198 397.518 271.673 414.248 271.374V279.573H428.189L429.831 265.632C429.831 265.632 438.031 259.064 436.399 243.47C434.757 227.876 419.99 227.876 419.99 227.876C419.99 227.876 396.95 226.007 398.324 239.277Z" fill="#FFD6D2"/>
<path opacity="0.9" d="M394.131 283.559C394.131 283.559 419.029 264.63 454.895 283.559L447.914 313.456L446.509 340.141H401.618L401.091 327.408C401.091 327.408 396.114 316.451 398.107 308.478L394.131 283.559Z" fill="#FFD066"/>
<path d="M394.131 283.559C394.131 283.559 388.141 290.54 389.153 301.497L384.919 335.091C384.723 336.682 385.115 338.809 385.797 340.131H394.823L399.119 315.439L394.131 283.559Z" fill="#FFD6D2"/>
<path d="M394.131 283.559C394.131 283.559 390.795 285.336 380.096 299.494C382.007 311.06 389.897 314.2 399.108 315.429L394.131 283.559Z" fill="#FFC764"/>
<path d="M454.905 283.559C454.905 283.559 457.9 285.336 468.609 299.494C466.699 311.06 457.146 312.196 447.924 313.435L454.905 283.559Z" fill="#FFC764"/>
<path d="M421.993 289.787H445.508C463.198 289.787 477.532 304.131 477.532 321.821V340.141H389.959V321.821C389.959 304.11 404.303 289.787 421.993 289.787Z" fill="#F2DDDD"/>
<path d="M431.608 289.787H455.122C472.812 289.787 487.146 304.131 487.146 321.821V340.141H399.583V321.821C399.583 304.11 413.907 289.787 431.608 289.787Z" fill="#FEF6F7"/>
<path d="M477.769 299.164C483.563 304.957 487.146 313.539 487.146 322.368V340.131H441.315L477.769 299.164Z" fill="#FEEDEF"/>
<path d="M188.509 240.94L179.153 226.905C177.253 224.065 173.969 222.485 170.571 222.805L165.315 223.281C160.513 223.704 156.847 227.721 156.847 232.544V253.652C156.847 254.892 157.084 256.089 157.559 257.236L160.854 265.229L159.893 282.248L170.685 287.236L183.077 283.177L184.895 266.179C184.895 266.179 186.382 264.423 187.425 262.709C188.819 260.427 189.811 257.091 190.203 254.53C190.596 251.959 191.36 245.793 191.36 245.793C191.38 243.955 189.532 242.468 188.509 240.94Z" fill="url(#paint18_linear)"/>
<path d="M190.079 250.978C192.31 250.978 194.117 248.272 194.117 244.926C194.117 241.58 192.31 238.874 190.079 238.874C187.849 238.874 186.041 241.58 186.041 244.926C186.041 248.272 187.849 250.978 190.079 250.978Z" fill="#FFD8D7"/>
<path d="M180.155 217.941C180.155 217.941 180.145 217.9 180.103 217.817C179.422 216.403 177.976 215.535 176.417 215.484C148.275 214.513 150.382 238.182 152.985 248.014C156.537 261.408 161.287 267.129 169.528 267.088C179.019 267.046 188.809 267.8 192.258 242.83C196.234 214.048 180.155 217.941 180.155 217.941Z" fill="url(#paint19_linear)"/>
<path d="M155.318 279.077L159.088 273.728C159.088 273.728 176.974 271.807 186.072 275.257L188.809 280.895L155.318 279.077Z" fill="#FF7B82"/>
<path d="M228.299 340.131L219.573 309.532L219.552 309.583C217.952 300.465 212.923 292.182 205.219 286.75C200.943 283.725 195.542 281.329 188.799 280.379C180.31 277.941 168.33 278.458 155.215 279.077C155.215 279.077 126.196 284.943 123.914 308.096H194.468V340.141H218.726L228.299 340.131Z" fill="#FF696B"/>
<path d="M104.892 245.246C104.892 245.246 107.577 265.281 100.461 274.678C98.3133 277.508 95.1842 275.711 90.3718 277.043L89.9587 286.709H75.8623L74.1997 272.602C74.1997 272.602 65.9071 265.972 67.5697 250.203C69.2324 234.444 84.1549 234.444 84.1549 234.444C84.1549 234.444 100.73 231.15 104.892 245.246Z" fill="#FEEDEE"/>
<path d="M95.6695 285.697C95.6695 285.697 94.6472 282.651 93.0465 281.029C93.0465 281.029 79.9002 277.972 72.4441 280.688L69.9862 284.592L95.6695 285.697Z" fill="#D7E2F4"/>
<path d="M110.303 290.747C110.303 290.747 85.136 271.611 48.8778 290.747L55.9208 320.954L56.9329 340.11L103.043 340.121L103.26 335.04C103.26 335.04 108.289 323.959 106.286 315.904L110.303 290.747Z" fill="#FF9FA2"/>
<path d="M48.8675 290.747C48.8675 290.747 44.8296 294.785 43.8382 299.804L32.7676 333.047H46.8744L54.2478 313.745L48.8675 290.747Z" fill="#FDB2B0"/>
<path d="M110.262 290.778C110.262 290.778 118.41 294.331 121.456 328.43L122.985 339.109L107.731 340.121L104.034 323.339L110.262 290.778Z" fill="#FF8F95"/>
<path d="M91.3941 227.866C67.3425 224.509 62.0654 240.754 62.241 248.262C62.5818 263.546 68.9845 268.627 68.9948 268.637C65.2771 271.756 62.778 276.238 61.7866 280.998C60.7332 286.028 61.3115 291.336 62.9948 296.189C64.2031 299.67 66.1342 303.119 69.3356 304.947C70.3993 301.404 69.8623 297.542 70.9053 293.99C72.2685 289.291 76.2134 285.645 77.3907 280.895C77.9793 278.551 77.0189 274.874 76.6678 272.489C80.3752 274.647 84.3924 274.368 88.6575 273.108C99.2633 269.979 100.74 256.048 100.74 256.048C113.504 241.022 105.191 229.787 91.3941 227.866Z" fill="#7C6C69"/>
<path d="M100.73 256.028C113.504 241.022 105.191 229.787 91.3941 227.855C67.3425 224.499 62.0654 240.744 62.241 248.251C62.5818 263.535 68.9845 268.616 68.9948 268.627L100.73 256.028Z" fill="url(#paint20_linear)"/>
<path d="M178.389 289.807H154.627C136.75 289.807 122.251 304.296 122.251 322.182V340.131H210.764V322.182C210.764 304.296 196.265 289.807 178.389 289.807Z" fill="#F2DDDD"/>
<path d="M168.682 289.807H144.919C127.043 289.807 112.544 304.296 112.544 322.182V340.131H201.057V322.182C201.057 304.296 186.547 289.807 168.682 289.807Z" fill="#FEF6F7"/>
<path d="M76.1928 289.807H52.4303C34.5542 289.807 20.0551 304.296 20.0551 322.182V340.131H108.568V322.182C108.558 304.296 94.0585 289.807 76.1928 289.807Z" fill="#F2DDDD"/>
<path d="M66.475 289.807H42.7022C24.8262 289.807 10.327 304.296 10.327 322.182V340.131H98.8399V322.182C98.8503 304.296 84.3511 289.807 66.475 289.807Z" fill="#FEF6F7"/>
<path d="M122.014 299.287C116.148 305.153 112.523 313.229 112.523 322.172V340.12H158.664L122.014 299.287Z" fill="#FEEDEF"/>
<path d="M20.0551 298.978C14.1893 304.843 10.327 313.218 10.327 322.162V340.11H56.6437L20.0551 298.978Z" fill="#FEEDEF"/>
<path d="M595.683 340.131H599.484" stroke="#EAA0A0" stroke-miterlimit="10" stroke-linecap="round"/>
<path d="M8.58176 340.131H591.728" stroke="#EAA0A0" stroke-miterlimit="10" stroke-linecap="round"/>
<path d="M0.516351 340.131H5.24613" stroke="#EAA0A0" stroke-miterlimit="10" stroke-linecap="round"/>
<path d="M99.2737 259.673C98.7573 262.286 99.3253 263.804 99.852 263.876C101.897 264.196 101.731 262.595 102.816 258.919C103.9 255.243 104.912 253.26 102.289 254.406C100.895 255.026 99.8003 257.05 99.2737 259.673Z" fill="#FFDEDE"/>
<path d="M509.473 244.988C506.861 243.842 507.862 245.814 508.947 249.501C510.031 253.188 509.866 254.778 511.911 254.458C512.437 254.375 513.005 252.867 512.489 250.255C511.962 247.621 510.867 245.597 509.473 244.988Z" fill="#F9C5C5"/>
<path d="M545.318 248.324C544.967 250.967 545.639 252.434 546.165 252.485C548.231 252.671 547.962 251.091 548.799 247.342C549.635 243.604 550.513 241.559 547.983 242.881C546.64 243.573 545.68 245.67 545.318 248.324Z" fill="#F9C5C5"/>
<path d="M447.552 258.558C443.917 253.611 442.802 249.501 441.604 239.845C440.396 230.158 438.63 225.769 430.616 223.136C430.626 223.136 425.329 219.005 415.559 220.957C408.114 222.444 397.322 225.831 395.535 232.059C394.182 236.788 395.236 242.53 403.59 249.222C403.59 249.222 404.417 253.972 405.429 256.441C406.441 258.909 405.945 262.451 401.411 264.847C395.804 267.811 397.663 272.303 404.076 274.41C410.489 276.516 428.396 280.182 440.52 276.878C451.497 273.904 452.251 264.971 447.552 258.558Z" fill="url(#paint21_linear)"/>
<path d="M534.454 217.425C530.406 215.545 526.399 214.657 521.256 216.196C517.105 217.415 513.852 220.43 509.979 222.454C508.172 223.404 503.866 227.773 503.866 233.432C503.866 239.298 508.596 242.065 511.043 248.158C513.594 269.515 526.11 266.272 534.289 266.169C548.551 264.826 548.799 239.184 548.799 239.184C548.799 239.184 548.799 239.184 548.809 239.153C548.995 238.358 548.84 221.835 534.454 217.425Z" fill="url(#paint22_linear)"/>
</g>
<defs>
<filter id="filter0_dd" x="141.814" y="48.3855" width="330.179" height="209.446" filterUnits="userSpaceOnUse" color-interpolation-filters="sRGB">
<feFlood flood-opacity="0" result="BackgroundImageFix"/>
<feColorMatrix in="SourceAlpha" type="matrix" values="0 0 0 0 0 0 0 0 0 0 0 0 0 0 0 0 0 0 127 0"/>
<feOffset/>
<feGaussianBlur stdDeviation="4"/>
<feColorMatrix type="matrix" values="0 0 0 0 1 0 0 0 0 0.54 0 0 0 0 0 0 0 0 0.13 0"/>
<feBlend mode="normal" in2="BackgroundImageFix" result="effect1_dropShadow"/>
<feColorMatrix in="SourceAlpha" type="matrix" values="0 0 0 0 0 0 0 0 0 0 0 0 0 0 0 0 0 0 127 0"/>
<feOffset dy="1"/>
<feGaussianBlur stdDeviation="1.5"/>
<feColorMatrix type="matrix" values="0 0 0 0 1 0 0 0 0 0.54 0 0 0 0 0 0 0 0 0.2 0"/>
<feBlend mode="normal" in2="effect1_dropShadow" result="effect2_dropShadow"/>
<feBlend mode="normal" in="SourceGraphic" in2="effect2_dropShadow" result="shape"/>
</filter>
<linearGradient id="paint0_linear" x1="299.799" y1="339.759" x2="299.799" y2="316.007" gradientUnits="userSpaceOnUse">
<stop stop-color="#E3CCC6"/>
<stop offset="1" stop-color="#D7C5BA"/>
</linearGradient>
<linearGradient id="paint1_linear" x1="291.131" y1="233.259" x2="291.131" y2="182.496" gradientUnits="userSpaceOnUse">
<stop stop-color="#FFAF75"/>
<stop offset="1" stop-color="#FF8D8D"/>
</linearGradient>
<linearGradient id="paint2_linear" x1="280.155" y1="233.259" x2="280.155" y2="189.357" gradientUnits="userSpaceOnUse">
<stop stop-color="#FFAF75"/>
<stop offset="1" stop-color="#FF8D8D"/>
</linearGradient>
<linearGradient id="paint3_linear" x1="269.18" y1="233.259" x2="269.18" y2="203.076" gradientUnits="userSpaceOnUse">
<stop stop-color="#FFAF75"/>
<stop offset="1" stop-color="#FF8D8D"/>
</linearGradient>
<linearGradient id="paint4_linear" x1="258.204" y1="233.259" x2="258.204" y2="200.332" gradientUnits="userSpaceOnUse">
<stop stop-color="#FFAF75"/>
<stop offset="1" stop-color="#FF8D8D"/>
</linearGradient>
<linearGradient id="paint5_linear" x1="247.228" y1="233.259" x2="247.228" y2="196.216" gradientUnits="userSpaceOnUse">
<stop stop-color="#FFAF75"/>
<stop offset="1" stop-color="#FF8D8D"/>
</linearGradient>
<linearGradient id="paint6_linear" x1="236.252" y1="233.259" x2="236.252" y2="189.357" gradientUnits="userSpaceOnUse">
<stop stop-color="#FFAF75"/>
<stop offset="1" stop-color="#FF8D8D"/>
</linearGradient>
<linearGradient id="paint7_linear" x1="225.277" y1="233.26" x2="225.277" y2="192.1" gradientUnits="userSpaceOnUse">
<stop stop-color="#FFAF75"/>
<stop offset="1" stop-color="#FF8D8D"/>
</linearGradient>
<linearGradient id="paint8_linear" x1="214.301" y1="233.26" x2="214.301" y2="194.844" gradientUnits="userSpaceOnUse">
<stop stop-color="#FFAF75"/>
<stop offset="1" stop-color="#FF8D8D"/>
</linearGradient>
<linearGradient id="paint9_linear" x1="203.326" y1="233.26" x2="203.326" y2="198.961" gradientUnits="userSpaceOnUse">
<stop stop-color="#FFAF75"/>
<stop offset="1" stop-color="#FF8D8D"/>
</linearGradient>
<linearGradient id="paint10_linear" x1="192.35" y1="233.259" x2="192.35" y2="203.076" gradientUnits="userSpaceOnUse">
<stop stop-color="#FFAF75"/>
<stop offset="1" stop-color="#FF8D8D"/>
</linearGradient>
<linearGradient id="paint11_linear" x1="181.374" y1="233.259" x2="181.374" y2="207.192" gradientUnits="userSpaceOnUse">
<stop stop-color="#FFAF75"/>
<stop offset="1" stop-color="#FF8D8D"/>
</linearGradient>
<linearGradient id="paint12_linear" x1="113.123" y1="135.655" x2="119.331" y2="159.42" gradientUnits="userSpaceOnUse">
<stop stop-color="#343962"/>
<stop offset="1" stop-color="#454B81"/>
</linearGradient>
<linearGradient id="paint13_linear" x1="75.0267" y1="137.69" x2="66.998" y2="155.354" gradientUnits="userSpaceOnUse">
<stop stop-color="#343962"/>
<stop offset="1" stop-color="#454B81"/>
</linearGradient>
<linearGradient id="paint14_linear" x1="93.0955" y1="123.559" x2="94.4549" y2="120.325" gradientUnits="userSpaceOnUse">
<stop stop-color="#676266" stop-opacity="0.05"/>
<stop offset="1" stop-color="#676266" stop-opacity="0.4"/>
</linearGradient>
<linearGradient id="paint15_linear" x1="94.9727" y1="103.358" x2="92.3971" y2="120.872" gradientUnits="userSpaceOnUse">
<stop stop-color="#FFE1DD"/>
<stop offset="0.9996" stop-color="#FFD6D2"/>
</linearGradient>
<linearGradient id="paint16_linear" x1="106.567" y1="95.7924" x2="94.6044" y2="101.459" gradientUnits="userSpaceOnUse">
<stop stop-color="#816368"/>
<stop offset="0.9996" stop-color="#5B575B"/>
</linearGradient>
<linearGradient id="paint17_linear" x1="94.1004" y1="307.47" x2="94.1004" y2="178.93" gradientUnits="userSpaceOnUse">
<stop stop-color="#E8CECB"/>
<stop offset="0.9996" stop-color="#F2E5D6"/>
</linearGradient>
<linearGradient id="paint18_linear" x1="168.674" y1="235.474" x2="178.061" y2="273.708" gradientUnits="userSpaceOnUse">
<stop stop-color="#FFE1DD"/>
<stop offset="0.9996" stop-color="#FFD6D2"/>
</linearGradient>
<linearGradient id="paint19_linear" x1="172.228" y1="267.093" x2="172.228" y2="215.454" gradientUnits="userSpaceOnUse">
<stop stop-color="#9E8B88"/>
<stop offset="1" stop-color="#A89B98"/>
</linearGradient>
<linearGradient id="paint20_linear" x1="73.3972" y1="229.755" x2="89.1944" y2="256.084" gradientUnits="userSpaceOnUse">
<stop stop-color="#957678"/>
<stop offset="1" stop-color="#7C6C69"/>
</linearGradient>
<linearGradient id="paint21_linear" x1="422.664" y1="278.209" x2="422.664" y2="220.434" gradientUnits="userSpaceOnUse">
<stop stop-color="#695E63"/>
<stop offset="1" stop-color="#796D66"/>
</linearGradient>
<linearGradient id="paint22_linear" x1="526.359" y1="266.412" x2="526.359" y2="215.412" gradientUnits="userSpaceOnUse">
<stop stop-color="#9E856B"/>
<stop offset="0.9996" stop-color="#B49381"/>
</linearGradient>
<clipPath id="clip0">
<rect width="600" height="340.647" fill="white"/>
</clipPath>
</defs>
</svg>
