<svg width="596" height="367" viewBox="0 0 596 367" fill="none" xmlns="http://www.w3.org/2000/svg">
<g clip-path="url(#clip0)">
<path d="M218.6 333.68C169.1 307.19 109.65 248.37 139.91 190.78C170.17 133.19 225.71 153.79 251.6 133.19C281.54 109.37 343.27 86.29 407.86 125.78C476.11 167.52 490.7 238.26 471.4 283.95C446.14 343.56 311.55 383.53 218.6 333.68Z" fill="#FEF6F7"/>
<path d="M518.43 366.91H99.05C90.86 366.91 84.23 360.29 84.23 352.09C84.23 343.89 90.85 337.27 99.05 337.27H518.43C526.62 337.27 533.25 343.89 533.25 352.09C533.25 360.29 526.51 366.91 518.43 366.91Z" fill="#F9EDEF"/>
<path d="M291.45 204.14C291.45 204.14 249.58 216.04 235.88 235.35C226 249.38 221.51 311.01 220.28 333.35C220.05 337.73 223.54 341.54 227.91 341.54H394.72C399.32 341.54 402.92 337.5 402.35 333.01C399.54 309.32 391.35 244.1 382.59 231.64C369.46 213.01 327.92 204.14 327.92 204.14H291.45Z" fill="#F26868"/>
<path d="M291.45 204.14C291.45 204.14 249.58 216.04 235.88 235.35C226 249.38 221.51 311.01 220.28 333.35C220.05 337.73 327.93 204.14 327.93 204.14H291.45Z" fill="url(#paint0_linear)"/>
<path d="M287.02 135.02C287.02 135.02 283.74 139.72 283.74 147.01C283.74 154.01 285.35 162.27 285.35 162.27H288.65L291.46 139.59L287.02 135.02Z" fill="#5B575B"/>
<path d="M287.08 171.48C289.81 171.48 292.02 169.27 292.02 166.54C292.02 163.81 289.81 161.6 287.08 161.6C284.35 161.6 282.14 163.81 282.14 166.54C282.14 169.27 284.35 171.48 287.08 171.48Z" fill="#EAB3AC"/>
<path d="M323.78 171.25L325.46 208.41H292.01L293.24 183.15L323.78 171.25Z" fill="#FFD6D2"/>
<path d="M324.53 184.78L293.02 188.09L292.42 200.03C292.42 200.03 318.62 199.99 324.53 184.78Z" fill="url(#paint1_linear)"/>
<path d="M311.32 192.47H303.46C295.15 192.47 288.31 185.62 288.31 177.32L287.07 148.02C286.96 138.93 293.69 133.2 301.89 133.2H313C321.2 133.2 327.82 139.82 327.82 148.02L326.47 177.32C326.48 185.73 319.74 192.47 311.32 192.47Z" fill="url(#paint2_linear)"/>
<path d="M301.56 122.65C288.2 122.43 286.4 128.38 286.84 134.11C287.29 139.95 293.27 143.75 301.56 143.76C309.82 143.76 313.46 140.28 317.95 140.28C323.45 140.28 326.93 145.22 326.93 151.39C326.93 157.56 326.93 164.19 326.93 164.19H329.17C329.17 164.19 330.91 155.49 331.08 147.18C331.53 130.67 323.1 123.23 301.56 122.65Z" fill="#5B575B"/>
<path d="M323.84 128.36C319.07 124.75 311.79 122.93 301.56 122.65C288.2 122.43 286.4 128.38 286.84 134.11C287.29 139.95 293.27 143.75 301.56 143.76L323.84 128.36Z" fill="url(#paint3_linear)"/>
<path d="M326.75 171.33C327.13 171.42 327.53 171.47 327.93 171.47C330.66 171.47 332.87 169.26 332.87 166.53C332.87 163.8 330.66 161.59 327.93 161.59C327.58 161.59 327.25 161.63 326.92 161.69L326.75 171.33Z" fill="#FFD6D2"/>
<path d="M288.31 209.87L308.18 278.46L328.83 208.98L307.73 208.42L288.31 209.87Z" fill="white"/>
<path opacity="0.3" d="M373.4 351.31H251.15C249.47 351.31 248.01 349.96 248.01 348.17C248.01 346.49 249.36 345.03 251.15 345.03H373.4C375.08 345.03 376.54 346.38 376.54 348.17C376.43 349.96 375.08 351.31 373.4 351.31Z" fill="#F26868"/>
<path opacity="0.25" d="M307.73 208.41L313.23 220.87C313.46 221.43 314.24 221.65 314.69 221.21L328.38 210.1L328.72 208.98L307.73 208.41Z" fill="#676266"/>
<path d="M325.02 199.32L307.73 208.53L313.46 219.08C313.8 219.64 314.58 219.87 315.14 219.42L328.83 208.98C329.62 208.42 329.84 207.3 329.28 206.51L325.02 199.32Z" fill="white"/>
<path opacity="0.25" d="M307.73 208.41L302.45 220.65C302.23 221.21 301.44 221.44 300.99 220.99L288.64 211.11L288.3 209.76L307.73 208.41Z" fill="#676266"/>
<path d="M292.35 199.99L307.73 208.52L301.89 219.3C301.66 219.86 300.99 219.97 300.54 219.64L288.3 209.99C287.29 209.2 287.06 207.75 287.85 206.73L292.35 199.99Z" fill="white"/>
<path opacity="0.25" d="M289.32 213.46L309.64 273.52H306.72L289.32 213.46Z" fill="#676266"/>
<path opacity="0.2" d="M239.59 243.43C239.59 243.43 250.7 273.06 252.95 285.97L262.83 286.76L239.59 243.43Z" fill="black"/>
<path d="M370.26 347.6H254.19C252.17 347.6 250.48 345.92 250.48 343.9V277.22C250.48 275.2 252.16 273.52 254.19 273.52H370.26C372.28 273.52 373.96 275.2 373.96 277.22V343.9C373.96 345.92 372.28 347.6 370.26 347.6Z" fill="white"/>
<path d="M298.3 164.97C299.17 164.97 299.87 164.17 299.87 163.17C299.87 162.17 299.17 161.37 298.3 161.37C297.43 161.37 296.73 162.17 296.73 163.17C296.73 164.17 297.43 164.97 298.3 164.97Z" fill="#5B575B"/>
<path d="M315.81 164.97C316.68 164.97 317.38 164.17 317.38 163.17C317.38 162.17 316.68 161.37 315.81 161.37C314.94 161.37 314.24 162.17 314.24 163.17C314.24 164.17 314.94 164.97 315.81 164.97Z" fill="#5B575B"/>
<path d="M316.94 149.81C316.94 149.81 319.63 149.14 321.32 150.93" stroke="#5B575B" stroke-miterlimit="10" stroke-linecap="round"/>
<path d="M297.07 149.81C297.07 149.81 294.38 149.14 292.69 150.93" stroke="#5B575B" stroke-miterlimit="10" stroke-linecap="round"/>
<path d="M306.27 184.5C306.27 184.5 309.64 186.86 312.11 183.71" stroke="#DDA4A4" stroke-miterlimit="10" stroke-linecap="round"/>
<path opacity="0.7" d="M306.5 158.79L303.81 175.29C303.81 175.29 305.04 176.75 308.19 176.08" stroke="#DDA4A4" stroke-miterlimit="10" stroke-linecap="round"/>
<path d="M296.73 169.12C301.19 169.12 304.81 165.5 304.81 161.04C304.81 156.58 301.19 152.96 296.73 152.96C292.27 152.96 288.65 156.58 288.65 161.04C288.65 165.5 292.27 169.12 296.73 169.12Z" stroke="white" stroke-miterlimit="10"/>
<path d="M317.38 169.12C321.84 169.12 325.46 165.5 325.46 161.04C325.46 156.58 321.84 152.96 317.38 152.96C312.92 152.96 309.3 156.58 309.3 161.04C309.3 165.5 312.92 169.12 317.38 169.12Z" stroke="white" stroke-miterlimit="10"/>
<path d="M304.92 161.04H309.3" stroke="white" stroke-miterlimit="10"/>
<path opacity="0.3" d="M331.64 209.08L337.7 210.65" stroke="#9E1B2B" stroke-width="1.25" stroke-miterlimit="10" stroke-linecap="round"/>
<path opacity="0.3" d="M330.41 213.24L336.47 214.81" stroke="#9E1B2B" stroke-width="1.25" stroke-miterlimit="10" stroke-linecap="round"/>
<path opacity="0.3" d="M329.17 217.28L335.23 218.85" stroke="#9E1B2B" stroke-width="1.25" stroke-miterlimit="10" stroke-linecap="round"/>
<path opacity="0.3" d="M327.94 221.32L334 222.89" stroke="#9E1B2B" stroke-width="1.25" stroke-miterlimit="10" stroke-linecap="round"/>
<path opacity="0.3" d="M326.7 225.47L332.76 227.04" stroke="#9E1B2B" stroke-width="1.25" stroke-miterlimit="10" stroke-linecap="round"/>
<path opacity="0.3" d="M325.47 229.51L331.53 231.08" stroke="#9E1B2B" stroke-width="1.25" stroke-miterlimit="10" stroke-linecap="round"/>
<path opacity="0.3" d="M324.23 233.55L330.29 235.12" stroke="#9E1B2B" stroke-width="1.25" stroke-miterlimit="10" stroke-linecap="round"/>
<path opacity="0.3" d="M323 237.71L329.06 239.28" stroke="#9E1B2B" stroke-width="1.25" stroke-miterlimit="10" stroke-linecap="round"/>
<path opacity="0.3" d="M321.76 241.75L327.82 243.32" stroke="#9E1B2B" stroke-width="1.25" stroke-miterlimit="10" stroke-linecap="round"/>
<path opacity="0.3" d="M320.53 245.79L326.59 247.36" stroke="#9E1B2B" stroke-width="1.25" stroke-miterlimit="10" stroke-linecap="round"/>
<path opacity="0.3" d="M319.29 249.94L325.35 251.51" stroke="#9E1B2B" stroke-width="1.25" stroke-miterlimit="10" stroke-linecap="round"/>
<path opacity="0.3" d="M318.06 253.98L324.12 255.55" stroke="#9E1B2B" stroke-width="1.25" stroke-miterlimit="10" stroke-linecap="round"/>
<path opacity="0.3" d="M316.82 258.03L322.88 259.6" stroke="#9E1B2B" stroke-width="1.25" stroke-miterlimit="10" stroke-linecap="round"/>
<path opacity="0.3" d="M315.59 262.18L321.65 263.75" stroke="#9E1B2B" stroke-width="1.25" stroke-miterlimit="10" stroke-linecap="round"/>
<path opacity="0.3" d="M314.35 266.22L320.41 267.79" stroke="#9E1B2B" stroke-width="1.25" stroke-miterlimit="10" stroke-linecap="round"/>
<path opacity="0.3" d="M313.12 270.26L319.18 271.83" stroke="#9E1B2B" stroke-width="1.25" stroke-miterlimit="10" stroke-linecap="round"/>
<path opacity="0.25" d="M284.94 210.32L278.88 211.89" stroke="#9E1B2B" stroke-width="1.1" stroke-miterlimit="10" stroke-linecap="round"/>
<path opacity="0.25" d="M286.18 214.47L280.12 216.04" stroke="#9E1B2B" stroke-width="1.1" stroke-miterlimit="10" stroke-linecap="round"/>
<path opacity="0.25" d="M287.41 218.51L281.35 220.08" stroke="#9E1B2B" stroke-width="1.1" stroke-miterlimit="10" stroke-linecap="round"/>
<path opacity="0.25" d="M288.65 222.55L282.59 224.12" stroke="#9E1B2B" stroke-width="1.1" stroke-miterlimit="10" stroke-linecap="round"/>
<path opacity="0.25" d="M289.88 226.71L283.82 228.28" stroke="#9E1B2B" stroke-width="1.1" stroke-miterlimit="10" stroke-linecap="round"/>
<path opacity="0.25" d="M291.12 230.75L285.06 232.32" stroke="#9E1B2B" stroke-width="1.1" stroke-miterlimit="10" stroke-linecap="round"/>
<path opacity="0.25" d="M292.35 234.79L286.29 236.36" stroke="#9E1B2B" stroke-width="1.1" stroke-miterlimit="10" stroke-linecap="round"/>
<path opacity="0.25" d="M293.59 238.94L287.53 240.51" stroke="#9E1B2B" stroke-width="1.1" stroke-miterlimit="10" stroke-linecap="round"/>
<path opacity="0.25" d="M294.82 242.98L288.76 244.55" stroke="#9E1B2B" stroke-width="1.1" stroke-miterlimit="10" stroke-linecap="round"/>
<path opacity="0.25" d="M296.06 247.02L290 248.59" stroke="#9E1B2B" stroke-width="1.1" stroke-miterlimit="10" stroke-linecap="round"/>
<path opacity="0.25" d="M297.29 251.18L291.23 252.75" stroke="#9E1B2B" stroke-width="1.1" stroke-miterlimit="10" stroke-linecap="round"/>
<path opacity="0.25" d="M298.53 255.22L292.47 256.79" stroke="#9E1B2B" stroke-width="1.1" stroke-miterlimit="10" stroke-linecap="round"/>
<path opacity="0.25" d="M299.76 259.26L293.7 260.83" stroke="#9E1B2B" stroke-width="1.1" stroke-miterlimit="10" stroke-linecap="round"/>
<path opacity="0.25" d="M301 263.41L294.94 264.98" stroke="#9E1B2B" stroke-width="1.1" stroke-miterlimit="10" stroke-linecap="round"/>
<path opacity="0.25" d="M302.23 267.45L296.17 269.02" stroke="#9E1B2B" stroke-width="1.1" stroke-miterlimit="10" stroke-linecap="round"/>
<path opacity="0.25" d="M303.46 271.5L297.4 273.07" stroke="#9E1B2B" stroke-width="1.1" stroke-miterlimit="10" stroke-linecap="round"/>
<path opacity="0.25" d="M309.64 216.04C309.64 216.04 310.09 227.49 309.64 228.72C309.19 230.07 308.07 231.3 308.29 232.99C308.52 234.79 309.75 235.46 309.86 237.03C309.97 238.6 309.63 263.97 309.63 263.97C309.63 263.97 310.75 239.5 310.75 237.14C310.75 234.78 309.74 234 309.74 232.54C309.74 230.63 310.64 230.29 310.64 228.39C310.65 225.25 309.64 216.04 309.64 216.04Z" fill="#676266"/>
<path d="M585.25 285.47C589.18 297.59 592.43 310.05 594.9 322.85" stroke="#EAA0A0" stroke-width="1.25" stroke-miterlimit="10" stroke-linecap="round"/>
<path d="M580.88 273.23C581.67 275.25 582.45 277.38 583.12 279.52" stroke="#EAA0A0" stroke-width="1.25" stroke-miterlimit="10" stroke-linecap="round"/>
<path d="M445.24 122.09C471.17 135.22 494.97 151.95 516.07 171.59" stroke="#EAA0A0" stroke-width="1.25" stroke-miterlimit="10" stroke-linecap="round"/>
<path d="M426.83 113.44C429.19 114.45 431.54 115.46 433.9 116.58" stroke="#EAA0A0" stroke-width="1.25" stroke-miterlimit="10" stroke-linecap="round"/>
<path d="M378.79 97.5C393.27 100.98 407.3 105.47 420.89 110.97" stroke="#EAA0A0" stroke-width="1.25" stroke-miterlimit="10" stroke-linecap="round"/>
<path d="M223.09 100.2C226.01 99.41 229.04 98.63 232.07 97.84" stroke="#EAA0A0" stroke-width="1.25" stroke-miterlimit="10" stroke-linecap="round"/>
<path d="M208.83 104.46C211.3 103.67 213.77 102.89 216.35 102.1" stroke="#EAA0A0" stroke-width="1.25" stroke-miterlimit="10" stroke-linecap="round"/>
<path d="M135.53 140.16C155.62 126.8 177.4 115.8 200.41 107.49" stroke="#EAA0A0" stroke-width="1.25" stroke-miterlimit="10" stroke-linecap="round"/>
<path d="M124.19 148.02C126.55 146.34 128.91 144.65 131.37 142.97" stroke="#EAA0A0" stroke-width="1.25" stroke-miterlimit="10" stroke-linecap="round"/>
<path d="M23.36 296.02C24.26 292.65 25.27 289.4 26.39 286.14" stroke="#EAA0A0" stroke-width="1.25" stroke-miterlimit="10" stroke-linecap="round"/>
<path d="M16.62 324.98C18.08 317.35 19.76 309.83 21.67 302.42" stroke="#EAA0A0" stroke-width="1.25" stroke-miterlimit="10" stroke-linecap="round"/>
<path d="M14.15 340.02C14.37 338.67 14.49 337.21 14.71 335.87" stroke="#EAA0A0" stroke-width="1.25" stroke-miterlimit="10" stroke-linecap="round"/>
<path d="M292.58 313.03C292.58 313.03 293.25 315.16 295.84 316.06C298.31 316.96 299.43 316.29 299.43 316.29L295.5 311.46L292.58 313.03Z" fill="#DD3333"/>
<path d="M301.67 308.2L292.58 313.14C292.58 313.14 294.04 312.91 295.39 313.59C296.74 314.26 303.47 319.99 307.4 320.32C312.45 320.77 317.17 316.05 317.17 316.05L305.5 307.29L301.67 308.2Z" fill="#F46F6C"/>
<path d="M301.67 308.2C301.56 308.2 304.14 300.79 313.23 300.45C322.32 300.11 325.13 307.97 324.68 311.34C324.23 314.48 323.22 316.05 321.65 316.28C320.19 316.39 317.95 316.39 317.16 315.94C316.37 315.49 314.24 315.49 310.54 312.57C306.72 309.55 304.48 307.31 301.67 308.2Z" fill="#EA4747"/>
<path opacity="0.2" d="M370.26 273.52H366.56C368.58 273.52 370.26 275.2 370.26 277.22L254.19 343.9C252.17 343.9 250.48 342.22 250.48 340.2V343.9C250.48 345.92 252.16 347.6 254.19 347.6H370.26C372.28 347.6 373.96 345.92 373.96 343.9V277.22C373.96 275.2 372.28 273.52 370.26 273.52Z" fill="#FFCFCF"/>
<path d="M117.46 158.01C119.59 159.58 119.37 165.76 115.78 171.14L61.9 252.86C60.1 255.55 53.48 260.81 46.52 265.19L117.46 158.01Z" fill="#F26868"/>
<path d="M42.59 242.2L6.92 242.3C4.45 242.31 2.15 243.55 0.79 245.62L0.59 245.92C-0.56 247.67 0.0199999 250.03 1.84 251.06L27.76 265.66L42.59 242.2Z" fill="#F26868"/>
<path d="M42.59 242.2L6.92 242.3C4.45 242.31 2.15 243.55 0.79 245.62L0.59 245.92C-0.56 247.67 0.0199999 250.03 1.84 251.06L27.76 265.66L42.59 242.2Z" fill="url(#paint4_linear)"/>
<path d="M40.68 259.6L30.35 261.84L4.63 282.81C4.13 283.22 4.55 284.02 5.17 283.85L9.59 282.61" fill="#F26868"/>
<path d="M118.17 158.85C118.17 158.85 117.79 158.12 117.34 157.9C117 157.68 116.56 157.45 116.11 157.34V157.35C109.46 155.36 92.76 162.75 89.4 167.9L29.23 259.16C24.96 267.24 24.74 269.6 28.78 271.4C31.93 272.76 38.61 270 45.07 266.06C46.44 265.25 47.81 264.4 49.1 263.54L118.17 158.85Z" fill="#F9F2F2"/>
<path d="M91.53 171.14L94.45 166.65C94.45 166.65 95.8 164.63 102.98 162.72L95.68 173.83L91.53 171.14Z" fill="#C1AEAE"/>
<path d="M90.29 182.81L88.27 185.84L84.23 183.15L86.25 180.12L90.29 182.81Z" fill="#C1AEAE"/>
<path d="M82.92 185.15L80.87 188.24L84.99 190.97L87.04 187.88L82.92 185.15Z" fill="#C1AEAE"/>
<path d="M63.17 215.08L61.13 218.17L65.25 220.9L67.29 217.81L63.17 215.08Z" fill="#C1AEAE"/>
<path d="M59.78 220.14L57.74 223.23L61.86 225.96L63.9 222.87L59.78 220.14Z" fill="#C1AEAE"/>
<path d="M56.29 225.36L54.25 228.45L58.37 231.18L60.41 228.09L56.29 225.36Z" fill="#C1AEAE"/>
<path d="M53.11 230.29L51.07 233.38L55.19 236.1L57.23 233.01L53.11 230.29Z" fill="#C1AEAE"/>
<path d="M49.73 235.36L47.69 238.45L51.81 241.17L53.85 238.08L49.73 235.36Z" fill="#C1AEAE"/>
<path d="M46.3 240.49L44.25 243.58L48.37 246.31L50.42 243.22L46.3 240.49Z" fill="#C1AEAE"/>
<path d="M79.58 190.29L77.53 193.38L81.65 196.11L83.7 193.02L79.58 190.29Z" fill="#C1AEAE"/>
<path d="M76.02 195.6L74.04 198.6L78.16 201.32L80.14 198.33L76.02 195.6Z" fill="#C1AEAE"/>
<path d="M72.89 200.29L70.85 203.38L74.97 206.1L77.01 203.01L72.89 200.29Z" fill="#C1AEAE"/>
<path d="M73.57 208.18L71.55 211.21L67.51 208.52L69.53 205.49L73.57 208.18Z" fill="#C1AEAE"/>
<path d="M66.1 210.63L64.06 213.72L68.18 216.45L70.22 213.36L66.1 210.63Z" fill="#C1AEAE"/>
<path d="M70.99 225.58L43.48 234L49.77 224.35L91.19 195.16L70.99 225.58Z" fill="#F26868"/>
<path d="M43.48 234L27.2 234.67L29.11 232.54L49.76 224.35L43.48 234Z" fill="#F26868"/>
<path d="M43.48 234L27.2 234.67L29.11 232.54L49.76 224.35L43.48 234Z" fill="url(#paint5_linear)"/>
<path d="M269 55.41H246.3V96.94H269V55.41Z" fill="#D6BEBA"/>
<path d="M250.79 58.78H248.79V64.78H250.79V58.78Z" fill="#EAD9D6"/>
<path d="M250.79 66.45H248.79V72.45H250.79V66.45Z" fill="#EAD9D6"/>
<path d="M250.79 74.11H248.79V80.11H250.79V74.11Z" fill="#EAD9D6"/>
<path d="M250.79 81.78H248.79V87.78H250.79V81.78Z" fill="#EAD9D6"/>
<path d="M254.79 58.78H252.79V64.78H254.79V58.78Z" fill="#EAD9D6"/>
<path d="M254.79 66.45H252.79V72.45H254.79V66.45Z" fill="#EAD9D6"/>
<path d="M254.79 74.11H252.79V80.11H254.79V74.11Z" fill="#EAD9D6"/>
<path d="M254.79 81.78H252.79V87.78H254.79V81.78Z" fill="#EAD9D6"/>
<path d="M258.79 58.78H256.79V64.78H258.79V58.78Z" fill="#EAD9D6"/>
<path d="M258.79 66.45H256.79V72.45H258.79V66.45Z" fill="#EAD9D6"/>
<path d="M258.79 74.11H256.79V80.11H258.79V74.11Z" fill="#EAD9D6"/>
<path d="M258.79 81.78H256.79V87.78H258.79V81.78Z" fill="#EAD9D6"/>
<path d="M262.79 58.78H260.79V64.78H262.79V58.78Z" fill="#EAD9D6"/>
<path d="M262.79 66.45H260.79V72.45H262.79V66.45Z" fill="#EAD9D6"/>
<path d="M262.79 74.11H260.79V80.11H262.79V74.11Z" fill="#EAD9D6"/>
<path d="M262.79 81.78H260.79V87.78H262.79V81.78Z" fill="#EAD9D6"/>
<path d="M266.79 58.78H264.79V64.78H266.79V58.78Z" fill="#EAD9D6"/>
<path d="M266.79 66.45H264.79V72.45H266.79V66.45Z" fill="#EAD9D6"/>
<path d="M266.79 74.11H264.79V80.11H266.79V74.11Z" fill="#EAD9D6"/>
<path d="M266.79 81.78H264.79V87.78H266.79V81.78Z" fill="#EAD9D6"/>
<path d="M363.3 36.32H337.97V96.94H363.3V36.32Z" fill="#EFE6D4"/>
<path d="M283.46 21.36H269V96.94H283.46V21.36Z" fill="url(#paint6_linear)"/>
<path d="M337.97 21.36H323.47V96.94H337.97V21.36Z" fill="url(#paint7_linear)"/>
<path d="M323.46 18.36H283.46V78.76H323.46V18.36Z" fill="#F2E5D6"/>
<path d="M280.61 25.76H272.61V28.76H280.61V25.76Z" fill="#C1AEAE"/>
<path d="M296.7 22.76H286.97V25.76H296.7V22.76Z" fill="#B7A7A7"/>
<path d="M308.28 22.76H298.55V25.76H308.28V22.76Z" fill="#B7A7A7"/>
<path d="M319.96 22.76H310.23V25.76H319.96V22.76Z" fill="#B7A7A7"/>
<path d="M334.32 25.76H326.32V28.76H334.32V25.76Z" fill="#C1AEAE"/>
<path d="M280.61 30.76H272.61V33.76H280.61V30.76Z" fill="#C1AEAE"/>
<path d="M296.7 27.76H286.97V30.76H296.7V27.76Z" fill="#B7A7A7"/>
<path d="M308.28 27.76H298.55V30.76H308.28V27.76Z" fill="#B7A7A7"/>
<path d="M319.96 27.76H310.23V30.76H319.96V27.76Z" fill="#B7A7A7"/>
<path d="M334.32 30.76H326.32V33.76H334.32V30.76Z" fill="#C1AEAE"/>
<path d="M280.61 35.76H272.61V38.76H280.61V35.76Z" fill="#C1AEAE"/>
<path d="M296.7 32.76H286.97V35.76H296.7V32.76Z" fill="#B7A7A7"/>
<path d="M308.28 32.76H298.55V35.76H308.28V32.76Z" fill="#B7A7A7"/>
<path d="M319.96 32.76H310.23V35.76H319.96V32.76Z" fill="#B7A7A7"/>
<path d="M334.32 35.76H326.32V38.76H334.32V35.76Z" fill="#C1AEAE"/>
<path d="M280.61 40.76H272.61V43.76H280.61V40.76Z" fill="#C1AEAE"/>
<path d="M296.7 37.76H286.97V40.76H296.7V37.76Z" fill="#B7A7A7"/>
<path d="M308.28 37.76H298.55V40.76H308.28V37.76Z" fill="#B7A7A7"/>
<path d="M319.96 37.76H310.23V40.76H319.96V37.76Z" fill="#B7A7A7"/>
<path d="M334.32 40.76H326.32V43.76H334.32V40.76Z" fill="#C1AEAE"/>
<path d="M280.61 45.76H272.61V48.76H280.61V45.76Z" fill="#C1AEAE"/>
<path d="M296.7 42.76H286.97V45.76H296.7V42.76Z" fill="#B7A7A7"/>
<path d="M308.28 42.76H298.55V45.76H308.28V42.76Z" fill="#B7A7A7"/>
<path d="M319.96 42.76H310.23V45.76H319.96V42.76Z" fill="#B7A7A7"/>
<path d="M334.32 45.76H326.32V48.76H334.32V45.76Z" fill="#C1AEAE"/>
<path d="M280.61 50.76H272.61V53.76H280.61V50.76Z" fill="#C1AEAE"/>
<path d="M296.7 47.76H286.97V50.76H296.7V47.76Z" fill="#B7A7A7"/>
<path d="M308.28 47.76H298.55V50.76H308.28V47.76Z" fill="#B7A7A7"/>
<path d="M319.96 47.76H310.23V50.76H319.96V47.76Z" fill="#B7A7A7"/>
<path d="M334.32 50.76H326.32V53.76H334.32V50.76Z" fill="#C1AEAE"/>
<path d="M280.61 55.76H272.61V58.76H280.61V55.76Z" fill="#C1AEAE"/>
<path d="M296.7 52.76H286.97V55.76H296.7V52.76Z" fill="#B7A7A7"/>
<path d="M308.28 52.76H298.55V55.76H308.28V52.76Z" fill="#B7A7A7"/>
<path d="M319.96 52.76H310.23V55.76H319.96V52.76Z" fill="#B7A7A7"/>
<path d="M334.32 55.76H326.32V58.76H334.32V55.76Z" fill="#C1AEAE"/>
<path d="M280.61 60.76H272.61V63.76H280.61V60.76Z" fill="#C1AEAE"/>
<path d="M296.7 57.76H286.97V60.76H296.7V57.76Z" fill="#B7A7A7"/>
<path d="M308.28 57.76H298.55V60.76H308.28V57.76Z" fill="#B7A7A7"/>
<path d="M319.96 57.76H310.23V60.76H319.96V57.76Z" fill="#B7A7A7"/>
<path d="M334.32 60.76H326.32V63.76H334.32V60.76Z" fill="#C1AEAE"/>
<path d="M280.61 65.76H272.61V68.76H280.61V65.76Z" fill="#C1AEAE"/>
<path d="M296.7 62.76H286.97V65.76H296.7V62.76Z" fill="#B7A7A7"/>
<path d="M308.28 62.76H298.55V65.76H308.28V62.76Z" fill="#B7A7A7"/>
<path d="M319.96 62.76H310.23V65.76H319.96V62.76Z" fill="#B7A7A7"/>
<path d="M334.32 65.76H326.32V68.76H334.32V65.76Z" fill="#C1AEAE"/>
<path d="M280.61 70.76H272.61V73.76H280.61V70.76Z" fill="#C1AEAE"/>
<path d="M296.7 67.76H286.97V70.76H296.7V67.76Z" fill="#B7A7A7"/>
<path d="M308.28 67.76H298.55V70.76H308.28V67.76Z" fill="#B7A7A7"/>
<path d="M319.96 67.76H310.23V70.76H319.96V67.76Z" fill="#B7A7A7"/>
<path d="M296.7 72.76H286.97V75.76H296.7V72.76Z" fill="#B7A7A7"/>
<path d="M308.28 72.76H298.55V75.76H308.28V72.76Z" fill="#B7A7A7"/>
<path d="M319.96 72.76H310.23V75.76H319.96V72.76Z" fill="#B7A7A7"/>
<path d="M334.32 70.76H326.32V73.76H334.32V70.76Z" fill="#C1AEAE"/>
<path d="M280.61 75.76H272.61V78.76H280.61V75.76Z" fill="#C1AEAE"/>
<path d="M334.32 75.76H326.32V78.76H334.32V75.76Z" fill="#C1AEAE"/>
<path d="M280.61 80.76H272.61V83.76H280.61V80.76Z" fill="#C1AEAE"/>
<path d="M334.32 80.76H326.32V83.76H334.32V80.76Z" fill="#C1AEAE"/>
<path d="M280.61 85.76H272.61V88.76H280.61V85.76Z" fill="#C1AEAE"/>
<path d="M334.32 85.76H326.32V88.76H334.32V85.76Z" fill="#C1AEAE"/>
<path d="M280.61 90.76H272.61V93.76H280.61V90.76Z" fill="#C1AEAE"/>
<path d="M334.32 90.76H326.32V93.76H334.32V90.76Z" fill="#C1AEAE"/>
<path d="M565.8 207.85L544.36 221.77L523.48 189.52C522.57 188.11 522.99 186.23 524.41 185.34L528.69 182.68L529.67 184.11L534.83 182.64C536.95 182.04 539.22 182.89 540.41 184.75L544.14 190.57L555.01 192.12C555.59 192.2 556.1 192.54 556.42 193.03L565.8 207.85Z" fill="#6F696F"/>
<path d="M565.8 207.85L544.36 221.77L571.11 263.06C571.88 264.25 573.61 264.28 574.43 263.12L577.7 258.46C580.11 255.03 580.36 250.53 578.34 246.85L571.3 234L575.48 224.1C575.74 223.48 575.68 222.77 575.31 222.21L565.8 207.85Z" fill="#645C64"/>
<path d="M562.77 206.73L556.85 210.9L547.77 196.41L556.23 196.31L562.77 206.73Z" fill="#DEEBFF"/>
<path d="M544.14 190.56L545.75 193.14L555.23 193.68L554.15 191.99L544.14 190.56Z" fill="#DEEBFF"/>
<path d="M565.59 211.12L559.5 215.13L568.07 228.84L571.86 220.54L565.59 211.12Z" fill="#D2E2F9"/>
<path d="M571.3 234L570.11 232.1L573.88 223.45L575.03 225.17L571.3 234Z" fill="#D2E2F9"/>
<path d="M559.97 243.21C557.16 245.01 556.38 248.71 558.17 251.52C559.97 254.33 563.67 255.11 566.48 253.32C569.29 251.52 570.07 247.82 568.28 245.01C566.48 242.2 562.77 241.41 559.97 243.21ZM562.1 246.46C563 245.9 564.23 246.12 564.91 247.02C565.47 247.92 565.25 249.15 564.35 249.83C563.45 250.39 562.22 250.17 561.54 249.27C560.98 248.37 561.2 247.14 562.1 246.46Z" fill="#070707"/>
<path d="M561.37 245.22C562.93 244.15 565.08 244.63 566.15 246.29C567.22 247.95 566.74 250 565.08 251.07C563.52 252.14 561.37 251.66 560.3 250C559.22 248.34 559.71 246.29 561.37 245.22Z" fill="#CCCCCC"/>
<path d="M530.11 196.96C527.3 198.76 526.52 202.46 528.31 205.27C530.11 208.08 533.81 208.86 536.62 207.07C539.43 205.27 540.21 201.57 538.42 198.76C536.51 195.95 532.8 195.16 530.11 196.96ZM532.24 200.33C533.14 199.77 534.37 199.99 535.05 200.89C535.61 201.79 535.39 203.02 534.49 203.7C533.59 204.26 532.36 204.04 531.68 203.14C531 202.12 531.34 200.89 532.24 200.33Z" fill="#4D5556"/>
<path d="M531.4 199.08C532.98 198.01 535.15 198.49 536.23 200.15C537.31 201.71 536.82 203.86 535.15 204.93C533.57 206 531.4 205.52 530.32 203.86C529.33 202.3 529.82 200.16 531.4 199.08Z" fill="white"/>
<path d="M329.38 27.45L323.49 21.45V96.94H329.38V27.45Z" fill="url(#paint8_linear)"/>
<path d="M324.96 78.26H281.96V81.26H324.96V78.26Z" fill="#F7F1ED"/>
<path d="M324.46 78.76V80.76H282.46V78.76H324.46ZM325.46 77.76H324.46H282.46H281.46V78.76V80.76V81.76H282.46H324.46H325.46V80.76V78.76V77.76Z" fill="#DFCEC0"/>
<path d="M323.46 81.78H283.46V96.94H323.46V81.78Z" fill="#F7F1ED"/>
<path d="M289.96 85.78C288.3 85.78 286.96 87.12 286.96 88.78V92.78H292.96V88.78C292.96 87.12 291.62 85.78 289.96 85.78Z" fill="#D1C3C3"/>
<path d="M303.46 83.78C299.04 83.78 295.46 87.36 295.46 91.78V96.94H303.46V83.78Z" fill="#D8CBCB"/>
<path d="M303.46 83.78V96.94H311.46V91.78C311.46 87.36 307.88 83.78 303.46 83.78Z" fill="#D1C3C3"/>
<path d="M316.96 85.78C315.3 85.78 313.96 87.12 313.96 88.78V92.78H319.96V88.78C319.96 87.12 318.62 85.78 316.96 85.78Z" fill="#D1C3C3"/>
<path d="M304.46 90.61V92.61" stroke="#F2E5D6" stroke-width="0.75" stroke-miterlimit="10" stroke-linecap="round"/>
<path d="M302.46 90.61V92.61" stroke="#F2E5D6" stroke-width="0.75" stroke-miterlimit="10" stroke-linecap="round"/>
<path d="M360.97 39.76H337.97V42.76H360.97V39.76Z" fill="#D3BEAE"/>
<path d="M360.97 45.76H337.97V48.76H360.97V45.76Z" fill="#D3BEAE"/>
<path d="M360.97 51.76H337.97V54.76H360.97V51.76Z" fill="#D3BEAE"/>
<path d="M360.97 57.76H337.97V60.76H360.97V57.76Z" fill="#D3BEAE"/>
<path d="M360.97 63.76H337.97V66.76H360.97V63.76Z" fill="#D3BEAE"/>
<path d="M360.97 69.76H337.97V72.76H360.97V69.76Z" fill="#D3BEAE"/>
<path d="M360.97 75.76H337.97V78.76H360.97V75.76Z" fill="#D3BEAE"/>
<path d="M360.97 81.76H337.97V84.76H360.97V81.76Z" fill="#D3BEAE"/>
<path d="M360.97 87.76H337.97V90.76H360.97V87.76Z" fill="#D3BEAE"/>
<path d="M346.63 44.32L337.96 36.32V96.94H346.63V44.32Z" fill="url(#paint9_linear)"/>
<path d="M303.47 0L304.97 2.66L307.97 3.27L305.9 5.52L306.25 8.56L303.47 7.29L300.68 8.56L301.04 5.52L298.97 3.27L301.96 2.66L303.47 0Z" fill="url(#paint10_linear)"/>
<path d="M293.43 1.78003L294.85 4.30003L297.68 4.87003L295.72 6.99003L296.05 9.86003L293.43 8.66003L290.8 9.86003L291.13 6.99003L289.18 4.87003L292.01 4.30003L293.43 1.78003Z" fill="url(#paint11_linear)"/>
<path d="M313.5 1.78003L314.92 4.30003L317.75 4.87003L315.8 6.99003L316.13 9.86003L313.5 8.66003L310.88 9.86003L311.21 6.99003L309.25 4.87003L312.09 4.30003L313.5 1.78003Z" fill="url(#paint12_linear)"/>
<path d="M322.54 5.02002L323.88 7.39002L326.54 7.92002L324.7 9.92002L325.01 12.63L322.54 11.49L320.07 12.63L320.38 9.92002L318.54 7.92002L321.21 7.39002L322.54 5.02002Z" fill="url(#paint13_linear)"/>
<path d="M284.39 5.02002L285.72 7.39002L288.39 7.92002L286.55 9.92002L286.86 12.63L284.39 11.49L281.92 12.63L282.23 9.92002L280.39 7.92002L283.05 7.39002L284.39 5.02002Z" fill="url(#paint14_linear)"/>
</g>
<defs>
<linearGradient id="paint0_linear" x1="236.756" y1="232.982" x2="266.392" y2="261.382" gradientUnits="userSpaceOnUse">
<stop stop-color="#F7941D" stop-opacity="0.25"/>
<stop offset="1" stop-color="#F7941D" stop-opacity="0"/>
</linearGradient>
<linearGradient id="paint1_linear" x1="309.691" y1="197.342" x2="307.135" y2="186.937" gradientUnits="userSpaceOnUse">
<stop stop-color="#676266" stop-opacity="0.05"/>
<stop offset="1" stop-color="#676266" stop-opacity="0.4"/>
</linearGradient>
<linearGradient id="paint2_linear" x1="293.502" y1="139.29" x2="320.936" y2="183.351" gradientUnits="userSpaceOnUse">
<stop stop-color="#FFE1DD"/>
<stop offset="0.9996" stop-color="#FFD6D2"/>
</linearGradient>
<linearGradient id="paint3_linear" x1="295.07" y1="121.97" x2="309.535" y2="137.018" gradientUnits="userSpaceOnUse">
<stop stop-color="#816368"/>
<stop offset="0.9996" stop-color="#5B575B"/>
</linearGradient>
<linearGradient id="paint4_linear" x1="0.1375" y1="254.347" x2="42.8264" y2="253.431" gradientUnits="userSpaceOnUse">
<stop stop-color="#F7941D" stop-opacity="0.25"/>
<stop offset="1" stop-color="#F7941D" stop-opacity="0"/>
</linearGradient>
<linearGradient id="paint5_linear" x1="27.0706" y1="229.758" x2="49.8449" y2="229.27" gradientUnits="userSpaceOnUse">
<stop stop-color="#F7941D" stop-opacity="0.25"/>
<stop offset="1" stop-color="#F7941D" stop-opacity="0"/>
</linearGradient>
<linearGradient id="paint6_linear" x1="276.234" y1="96.9405" x2="276.234" y2="21.3624" gradientUnits="userSpaceOnUse">
<stop stop-color="#E8D9CD"/>
<stop offset="1" stop-color="#DFCEC0"/>
</linearGradient>
<linearGradient id="paint7_linear" x1="330.716" y1="96.9405" x2="330.716" y2="21.3624" gradientUnits="userSpaceOnUse">
<stop stop-color="#E8D9CD"/>
<stop offset="1" stop-color="#DFCEC0"/>
</linearGradient>
<linearGradient id="paint8_linear" x1="323.492" y1="59.1963" x2="329.378" y2="59.1963" gradientUnits="userSpaceOnUse">
<stop stop-color="#676266" stop-opacity="0.25"/>
<stop offset="1" stop-color="#676266" stop-opacity="0.1"/>
</linearGradient>
<linearGradient id="paint9_linear" x1="337.966" y1="66.6318" x2="346.631" y2="66.6318" gradientUnits="userSpaceOnUse">
<stop stop-color="#676266" stop-opacity="0.25"/>
<stop offset="1" stop-color="#676266" stop-opacity="0.1"/>
</linearGradient>
<linearGradient id="paint10_linear" x1="303.466" y1="8.5595" x2="303.466" y2="0" gradientUnits="userSpaceOnUse">
<stop stop-color="#FFA245"/>
<stop offset="1" stop-color="#FFC764"/>
</linearGradient>
<linearGradient id="paint11_linear" x1="293.427" y1="9.86293" x2="293.427" y2="1.77893" gradientUnits="userSpaceOnUse">
<stop stop-color="#FFA245"/>
<stop offset="1" stop-color="#FFC764"/>
</linearGradient>
<linearGradient id="paint12_linear" x1="313.504" y1="9.86293" x2="313.504" y2="1.77893" gradientUnits="userSpaceOnUse">
<stop stop-color="#FFA245"/>
<stop offset="1" stop-color="#FFC764"/>
</linearGradient>
<linearGradient id="paint13_linear" x1="322.542" y1="12.6251" x2="322.542" y2="5.01672" gradientUnits="userSpaceOnUse">
<stop stop-color="#FFA245"/>
<stop offset="1" stop-color="#FFC764"/>
</linearGradient>
<linearGradient id="paint14_linear" x1="284.389" y1="12.6251" x2="284.389" y2="5.01672" gradientUnits="userSpaceOnUse">
<stop stop-color="#FFA245"/>
<stop offset="1" stop-color="#FFC764"/>
</linearGradient>
<clipPath id="clip0">
<rect width="595.53" height="366.91" fill="white"/>
</clipPath>
</defs>
</svg>
